INDEX VERSION 1.131+C:\Users\erica\Documents\Computing\2021_22-DAW_1\entornos\practicas\ud02_git-jar-exe-debugger\ud02pr01-jar_exe_git_debugger\.metadata\.plugins\org.eclipse.jdt.core
1650688248.index
3597645588.index
2929315671.index
414759181.index
4062864311.index
2080277838.index
511307970.index
1230375882.index
754584817.index
512056584.index
2227786841.index
113544824.index
3643736272.index
2661293508.index
1102354409.index
769398222.index
3053758710.index
2003360389.index
483966528.index
3890964253.index
752719495.index
1704956129.index
2795265832.index
368191065.index
3551552156.index
